module gitlab.com/meeting-master/chicout

go 1.13

require (
	github.com/gin-contrib/cors v1.3.1
	github.com/gin-gonic/gin v1.5.0
	github.com/go-playground/universal-translator v0.17.0 // indirect
	github.com/golang/protobuf v1.3.5 // indirect
	github.com/joho/godotenv v1.3.0
	github.com/json-iterator/go v1.1.9 // indirect
	github.com/leodido/go-urn v1.2.0 // indirect
	github.com/mattn/go-isatty v0.0.12 // indirect
	github.com/modern-go/concurrent v0.0.0-20180306012644-bacd9c7ef1dd // indirect
	github.com/modern-go/reflect2 v1.0.1 // indirect
	gitlab.com/meeting-master/sdk v1.1.5

	golang.org/x/sys v0.0.0-20200321134203-328b4cd54aae // indirect
	gopkg.in/go-playground/validator.v9 v9.31.0 // indirect
)
